{
  "version": "15.0.4",
  "vulnerabilities": [
    {
      "id": "7a4b7401633d97eaa7c17e865d6609cd8c4d4cfc0ae4ac75db9805909bc9de6d",
      "category": "secret_detection",
      "name": "AWS Access Token",
      "description": "AWS Access Token secret has been found in commit ef0d61a4.",
      "cve": "keys/aws:4dc0376c1c8fd35a454f62ea011e80b28b512fdea09cfb476169ed4ca26c1460:AWS",
      "severity": "Critical",
      "confidence": "Unknown",
      "raw_source_code_extract": "AKIAXYZDQCENR3HDDQGL",
      "scanner": {
        "id": "gitleaks",
        "name": "Gitleaks"
      },
      "location": {
        "file": "keys/aws",
        "commit": {
          "author": "Isaac Dawson",
          "date": "2020-03-12T19:58:51Z",
          "message": "Add secrets for common API keys/tokens",
          "sha": "ef0d61a40bbf6cfd89b2cd7f4ffb431e386c0da9"
        },
        "start_line": 2
      },
      "identifiers": [
        {
          "type": "gitleaks_rule_id",
          "name": "Gitleaks rule ID AWS",
          "value": "AWS"
        }
      ]
    },
    {
      "id": "c6a2829f04e2558f23b03124b7e09bf208edbdb7d32b7a32cfd6147dc21dd1fa",
      "category": "secret_detection",
      "name": "SSH private key",
      "description": "SSH private key secret has been found in commit ef0d61a4.",
      "cve": "keys/dsa_key:03d104c669e3c7b6be7f989db8b12c8b910d3be8c1e2a73c9369d3cc0ba803b5:SSH private key",
      "severity": "Critical",
      "confidence": "Unknown",
      "raw_source_code_extract": "-----BEGIN OPENSSH PRIVATE KEY-----",
      "scanner": {
        "id": "gitleaks",
        "name": "Gitleaks"
      },
      "location": {
        "file": "keys/dsa_key",
        "commit": {
          "author": "Isaac Dawson",
          "date": "2020-03-12T19:58:51Z",
          "message": "Add secrets for common API keys/tokens",
          "sha": "ef0d61a40bbf6cfd89b2cd7f4ffb431e386c0da9"
        },
        "start_line": 1
      },
      "identifiers": [
        {
          "type": "gitleaks_rule_id",
          "name": "Gitleaks rule ID SSH private key",
          "value": "SSH private key"
        }
      ]
    },
    {
      "id": "8f3a1a8867754de9b3bd511aecb551843410a827ae39e5b4c011813433752048",
      "category": "secret_detection",
      "name": "SSH private key",
      "description": "SSH private key secret has been found in commit ef0d61a4.",
      "cve": "keys/ecdsa_key:03d104c669e3c7b6be7f989db8b12c8b910d3be8c1e2a73c9369d3cc0ba803b5:SSH private key",
      "severity": "Critical",
      "confidence": "Unknown",
      "raw_source_code_extract": "-----BEGIN OPENSSH PRIVATE KEY-----",
      "scanner": {
        "id": "gitleaks",
        "name": "Gitleaks"
      },
      "location": {
        "file": "keys/ecdsa_key",
        "commit": {
          "author": "Isaac Dawson",
          "date": "2020-03-12T19:58:51Z",
          "message": "Add secrets for common API keys/tokens",
          "sha": "ef0d61a40bbf6cfd89b2cd7f4ffb431e386c0da9"
        },
        "start_line": 1
      },
      "identifiers": [
        {
          "type": "gitleaks_rule_id",
          "name": "Gitleaks rule ID SSH private key",
          "value": "SSH private key"
        }
      ]
    },
    {
      "id": "1949f4c213b29152e13ec24e0b9f7145b853856d3247bfaab886a81a516e642b",
      "category": "secret_detection",
      "name": "SSH private key",
      "description": "SSH private key secret has been found in commit ef0d61a4.",
      "cve": "keys/ed25519_key:03d104c669e3c7b6be7f989db8b12c8b910d3be8c1e2a73c9369d3cc0ba803b5:SSH private key",
      "severity": "Critical",
      "confidence": "Unknown",
      "raw_source_code_extract": "-----BEGIN OPENSSH PRIVATE KEY-----",
      "scanner": {
        "id": "gitleaks",
        "name": "Gitleaks"
      },
      "location": {
        "file": "keys/ed25519_key",
        "commit": {
          "author": "Isaac Dawson",
          "date": "2020-03-12T19:58:51Z",
          "message": "Add secrets for common API keys/tokens",
          "sha": "ef0d61a40bbf6cfd89b2cd7f4ffb431e386c0da9"
        },
        "start_line": 1
      },
      "identifiers": [
        {
          "type": "gitleaks_rule_id",
          "name": "Gitleaks rule ID SSH private key",
          "value": "SSH private key"
        }
      ]
    },
    {
      "id": "45bcabab0c6ddf41f12e93ba46a58af2d8758a03adf0a4675a6b580e3938ef3f",
      "category": "secret_detection",
      "name": "PGP private key",
      "description": "PGP private key secret has been found in commit ef0d61a4.",
      "cve": "keys/pgp_ecc_key:8a1ddaa7dab83b9a5ffe092bc3aad1df30c2e0be6246aee0a0da616d628d1da7:PGP private key",
      "severity": "Critical",
      "confidence": "Unknown",
      "raw_source_code_extract": "-----BEGIN PGP PRIVATE KEY BLOCK-----",
      "scanner": {
        "id": "gitleaks",
        "name": "Gitleaks"
      },
      "location": {
        "file": "keys/pgp_ecc_key",
        "commit": {
          "author": "Isaac Dawson",
          "date": "2020-03-12T19:58:51Z",
          "message": "Add secrets for common API keys/tokens",
          "sha": "ef0d61a40bbf6cfd89b2cd7f4ffb431e386c0da9"
        },
        "start_line": 1
      },
      "identifiers": [
        {
          "type": "gitleaks_rule_id",
          "name": "Gitleaks rule ID PGP private key",
          "value": "PGP private key"
        }
      ]
    },
    {
      "id": "2488eee39d5f596b04bbaa3e9b0f5d35791cc228d9164d0f19a659a303cf54fe",
      "category": "secret_detection",
      "name": "PGP private key",
      "description": "PGP private key secret has been found in commit ef0d61a4.",
      "cve": "keys/pgp_rsa_key:8a1ddaa7dab83b9a5ffe092bc3aad1df30c2e0be6246aee0a0da616d628d1da7:PGP private key",
      "severity": "Critical",
      "confidence": "Unknown",
      "raw_source_code_extract": "-----BEGIN PGP PRIVATE KEY BLOCK-----",
      "scanner": {
        "id": "gitleaks",
        "name": "Gitleaks"
      },
      "location": {
        "file": "keys/pgp_rsa_key",
        "commit": {
          "author": "Isaac Dawson",
          "date": "2020-03-12T19:58:51Z",
          "message": "Add secrets for common API keys/tokens",
          "sha": "ef0d61a40bbf6cfd89b2cd7f4ffb431e386c0da9"
        },
        "start_line": 1
      },
      "identifiers": [
        {
          "type": "gitleaks_rule_id",
          "name": "Gitleaks rule ID PGP private key",
          "value": "PGP private key"
        }
      ]
    },
    {
      "id": "52eddfc1acf9932e029e6279de549175075f77a8133bea45ad3e85bfad026724",
      "category": "secret_detection",
      "name": "SSH private key",
      "description": "SSH private key secret has been found in commit ef0d61a4.",
      "cve": "keys/rsa_key:03d104c669e3c7b6be7f989db8b12c8b910d3be8c1e2a73c9369d3cc0ba803b5:SSH private key",
      "severity": "Critical",
      "confidence": "Unknown",
      "raw_source_code_extract": "-----BEGIN OPENSSH PRIVATE KEY-----",
      "scanner": {
        "id": "gitleaks",
        "name": "Gitleaks"
      },
      "location": {
        "file": "keys/rsa_key",
        "commit": {
          "author": "Isaac Dawson",
          "date": "2020-03-12T19:58:51Z",
          "message": "Add secrets for common API keys/tokens",
          "sha": "ef0d61a40bbf6cfd89b2cd7f4ffb431e386c0da9"
        },
        "start_line": 1
      },
      "identifiers": [
        {
          "type": "gitleaks_rule_id",
          "name": "Gitleaks rule ID SSH private key",
          "value": "SSH private key"
        }
      ]
    },
    {
      "id": "8e663beea9385cf3516ac8ec6b171d509f048e8907d783465d69374f14d838bd",
      "category": "secret_detection",
      "name": "Slack token",
      "description": "Slack token secret has been found in commit ef0d61a4.",
      "cve": "keys/slack_key:a3d4d73ddd6fdcb519e9be3e834a091ff75a8a4a193f7378e9ed3a4cfdb6839c:Slack token",
      "severity": "Critical",
      "confidence": "Unknown",
      "raw_source_code_extract": "xoxp-905439787527",
      "scanner": {
        "id": "gitleaks",
        "name": "Gitleaks"
      },
      "location": {
        "file": "keys/slack_key",
        "commit": {
          "author": "Isaac Dawson",
          "date": "2020-03-12T19:58:51Z",
          "message": "Add secrets for common API keys/tokens",
          "sha": "ef0d61a40bbf6cfd89b2cd7f4ffb431e386c0da9"
        },
        "start_line": 2
      },
      "identifiers": [
        {
          "type": "gitleaks_rule_id",
          "name": "Gitleaks rule ID Slack token",
          "value": "Slack token"
        }
      ]
    },
    {
      "id": "2f03716e1c026244ab7247e8c8efdda68203c81061d10b046513ca6ebb28b5ca",
      "category": "secret_detection",
      "name": "Stripe",
      "description": "Stripe secret has been found in commit ef0d61a4.",
      "cve": "keys/stripe_key:2cafc0970149a84f3b9e62eaf169f36f59907a3b3e31f7b82e68c69cd27f7326:Stripe",
      "severity": "Critical",
      "confidence": "Unknown",
      "raw_source_code_extract": "sk_test_4eC39HqLyjWDarjtT1zdp7dc",
      "scanner": {
        "id": "gitleaks",
        "name": "Gitleaks"
      },
      "location": {
        "file": "keys/stripe_key",
        "commit": {
          "author": "Isaac Dawson",
          "date": "2020-03-12T19:58:51Z",
          "message": "Add secrets for common API keys/tokens",
          "sha": "ef0d61a40bbf6cfd89b2cd7f4ffb431e386c0da9"
        },
        "start_line": 1
      },
      "identifiers": [
        {
          "type": "gitleaks_rule_id",
          "name": "Gitleaks rule ID Stripe",
          "value": "Stripe"
        }
      ]
    },
    {
      "id": "1ec2e06f4536a2c6f61ab7a8a8076bc24ff03f6c0ba92a15db376f3c4b4c2af5",
      "category": "secret_detection",
      "name": "Stripe",
      "description": "Stripe secret has been found in commit ef0d61a4.",
      "cve": "keys/stripe_key:78a08441f4314f0a2833cfe58c62e555a162264206982cda39f6804f5048f570:Stripe",
      "severity": "Critical",
      "confidence": "Unknown",
      "raw_source_code_extract": "sk_live_4eC39HqLyjWDarjtT1zdp7dc",
      "scanner": {
        "id": "gitleaks",
        "name": "Gitleaks"
      },
      "location": {
        "file": "keys/stripe_key",
        "commit": {
          "author": "Isaac Dawson",
          "date": "2020-03-12T19:58:51Z",
          "message": "Add secrets for common API keys/tokens",
          "sha": "ef0d61a40bbf6cfd89b2cd7f4ffb431e386c0da9"
        },
        "start_line": 2
      },
      "identifiers": [
        {
          "type": "gitleaks_rule_id",
          "name": "Gitleaks rule ID Stripe",
          "value": "Stripe"
        }
      ]
    },
    {
      "id": "454fa30f678e1868f28b019f78e60b5e2333e4a3c1c62be71ac591779b967261",
      "category": "secret_detection",
      "name": "PKCS8 private key",
      "description": "PKCS8 private key secret has been found in commit ef0d61a4.",
      "cve": "keys/testkeys-110044-23ecb974342473e425f395ddd5f8f787ac6be90d.json:3021d90eb9437b2d8f30e8363695c4418b5e5f1870801b5c317e9398ee0f572d:PKCS8 private key",
      "severity": "Critical",
      "confidence": "Unknown",
      "raw_source_code_extract": "-----BEGIN PRIVATE KEY-----",
      "scanner": {
        "id": "gitleaks",
        "name": "Gitleaks"
      },
      "location": {
        "file": "keys/testkeys-110044-23ecb974342473e425f395ddd5f8f787ac6be90d.json",
        "commit": {
          "author": "Isaac Dawson",
          "date": "2020-03-12T19:58:51Z",
          "message": "Add secrets for common API keys/tokens",
          "sha": "ef0d61a40bbf6cfd89b2cd7f4ffb431e386c0da9"
        },
        "start_line": 5
      },
      "identifiers": [
        {
          "type": "gitleaks_rule_id",
          "name": "Gitleaks rule ID PKCS8 private key",
          "value": "PKCS8 private key"
        }
      ]
    },
    {
      "id": "ca0547564d8b2e532d7803f396b3185b02e65a13fcb18f88ee0e2a2ab51c8acc",
      "category": "secret_detection",
      "name": "Google (GCP) Service-account",
      "description": "Google (GCP) Service-account secret has been found in commit ef0d61a4.",
      "cve": "keys/testkeys-110044-23ecb974342473e425f395ddd5f8f787ac6be90d.json:14daefd306406828018466467ecc760e739c58858ef8e420a0c906b3c392642b:Google (GCP) Service-account",
      "severity": "Critical",
      "confidence": "Unknown",
      "raw_source_code_extract": "\"private_key\": \"-----BEGIN PRIVATE KEY-----\\nMIIEvQIBADANBgkqhkiG9w0BAQEFAASCBKcwggSjAgEAAoIBAQC1Ah18OamHGpy2\\n1xVuWEKCI2OkPovHqY33R6HUCKW690Bs0D7k81ZFmoHcafjTH3uOuZWFsMooBC3Q\\neVgKw2RVDvPgsy6BswhumlVteuTti2eZIcmj/YIuEndLGH11HZuQevMTn3AupaHT\\nEPoYb8eF926vSWQhAfcWBU3XF3to5jyEg5Qtny9GY+FY0mUhX7LBdnYnhqLKhM7S\\nT5zFF4z/FDWYhbtfsmfU4g/hqjoB/7Fmwmz/ANVRKmQ8wLBA87dqIU2H4q1SewP+\\ncCsrNLYIo4hV3pyJtlEHczFg5N+9wxMq6YYuMoUl+oPq9x/ixfSdqNVshv5DurG+\\nFbgDH7VHAgMBAAECggEAUk126LAzVDoWfdCIbxb0jsXWnazO0+dVpNVOUOHpsXyR\\nL6j0oBfA538cgwMwX5bWEIxz30kGcnGL/1ndXW+ApGhbHZV7lP+52siUBWa2xwf3\\nABrr24P+eEJvOZcWHHVs8aHl+sspMByh2x3CCfBxcYmTK2Kcg6GoHrwkq6OCuqwJ\\naOD3YfcJU9c9/k6V3YT8b8CVifCWReZlHizPWolBdi/LpIQiuGmjRmsK6dqmvAXX\\nHndJcsFd1hUGtClSeZ8MOCySSjPVqFftiWet+H08OaX37Mj/h3prymGj++ArL0Mj\\nKwST11+OGCZLqgWgyNavDI9IWWmGuaKhOK7vUjrRKQKBgQDhnN1sRhShvOkbWkle\\nmkMI40E5qocho8zQV22I+wRl3Eg6/pp5GJAy9PRGWgxUjGa8+dIIjP1JVEqNpS7e\\nhDW9Se4p8xGP4HEus0wfQZwJnG6+iRajh1bdFdC2rezRjsEQQ16aD3ZhEPCRLz6J\\neRYXibW7iGV9oyGPfqmj69D3jQKBgQDNY0kzProBpw/NEYZVxyHwUMjVep4HyJUk\\nAju1yx4fm0PBLVLLV0FyGf3xn9RkUuk+efWXMP/j/2SGw44EQsOdMjmqAURn74Dc\\na80we4LLg51ebt29Q5zOhyfMV65LId6fK+TckirW06rbcM5S/M1ON8eFM90vviFw\\nJ+YjSXORIwKBgBnMXC1zXgyYk3dDPbyJmzy678xuSYF5P4RbWvUc7wXOyJumXXeX\\nbXXGOOCKj3pji6P0VSYRKS1nbBcCWnerWpHIkGlPmCSBn6+dZQj18afPsYIsHuCY\\nK0Cgq/sXrErSLhVz/q9TMVAsJbYUVuxVYkdSwestz50sODw2WaOa5YxJAoGALPZe\\nUPybZb8341HB0cdtM5nLzYgxTkzn8WEXxz13E74+v+x3IpKwfhUYlavCqE/KReYX\\nEIkmi7gePq5SybX/8srK+t+aJRK2aAqlecagJINkkQa+Pi+uBTxrRv2u5z276aaH\\nTI4nGK5vyehRErPLEiN95zgqZMg/s7jYVcM/rHcCgYEAyvR8yWanh9ZZO1dNYil6\\nUKXP5B4/MHklaJtXJs88xkRV1+/8gtyPBeoUJwFNh6fDzLAdijhYID3R2O+cKYyk\\nNTsPhxgB11sJy4EkVZrMbEb70LPtF2LlvLQp2nM/h/hCaEZ04yJ6KiKmPdlNlHRG\\n8Ar37umH1zAk1jYmpmmb2pQ=\\n-----END PRIVATE KEY-----\\n\",",
      "scanner": {
        "id": "gitleaks",
        "name": "Gitleaks"
      },
      "location": {
        "file": "keys/testkeys-110044-23ecb974342473e425f395ddd5f8f787ac6be90d.json",
        "commit": {
          "author": "Isaac Dawson",
          "date": "2020-03-12T19:58:51Z",
          "message": "Add secrets for common API keys/tokens",
          "sha": "ef0d61a40bbf6cfd89b2cd7f4ffb431e386c0da9"
        },
        "start_line": 5
      },
      "identifiers": [
        {
          "type": "gitleaks_rule_id",
          "name": "Gitleaks rule ID Google (GCP) Service-account",
          "value": "Google (GCP) Service-account"
        }
      ]
    },
    {
      "id": "4bd585c2ef4225fda11e8c6aa2b2065dd22ae893e9e6febed8995fd86a5a3ea0",
      "category": "secret_detection",
      "name": "Twilio API Key",
      "description": "Twilio API Key secret has been found in commit ef0d61a4.",
      "cve": "keys/twilio_key:f1661a9fc9996bb2f96465be1b4597de36ddad2a632ac785b8454e47f68ff225:Twilio API Key",
      "severity": "Critical",
      "confidence": "Unknown",
      "raw_source_code_extract": "SK0d066e24e71f21242e4ea5ba4781bb02",
      "scanner": {
        "id": "gitleaks",
        "name": "Gitleaks"
      },
      "location": {
        "file": "keys/twilio_key",
        "commit": {
          "author": "Isaac Dawson",
          "date": "2020-03-12T19:58:51Z",
          "message": "Add secrets for common API keys/tokens",
          "sha": "ef0d61a40bbf6cfd89b2cd7f4ffb431e386c0da9"
        },
        "start_line": 1
      },
      "identifiers": [
        {
          "type": "gitleaks_rule_id",
          "name": "Gitleaks rule ID Twilio API Key",
          "value": "Twilio API Key"
        }
      ]
    }
  ],
  "scan": {
    "analyzer": {
      "id": "secrets",
      "name": "secrets",
      "url": "https://gitlab.com/gitlab-org/security-products/analyzers/secrets",
      "vendor": {
        "name": "GitLab"
      }
    },
    "scanner": {
      "id": "gitleaks",
      "name": "Gitleaks",
      "url": "https://github.com/zricethezav/gitleaks",
      "vendor": {
        "name": "GitLab"
      },
      "version": "8.2.1"
    },
    "type": "secret_detection",
    "start_time": "2021-12-17T14:17:55",
    "end_time": "2021-12-17T14:17:55",
    "status": "success"
  }
}
